Data Manipulation in R
…
```r
train <- train %>%
  mutate(age_bin=cut(Age, breaks = c(0,18,60,80),
                     labels=c("children","adult","senior"),
                     include.lowest = TRUE)) %>%
  mutate(age_bin=addNA(age_bin)) 
train %>% select(Age,age_bin) %>% print(n=2)
```

```
## # A tibble: 891 x 2
##     Age age_bin
##   <dbl> <fct>  
## 1    22 adult  
## 2    38 adult  
## # ... with 889 more rows
```
…
```r
train %>% 
  group_by(Ticket) %>%
  summarise(shareTicket=n()) %>% 
  right_join(train, by ="Ticket") %>%
  select(Ticket,shareTicket) %>%
  print(n=4)
```

```
## # A tibble: 891 x 2
##   Ticket           shareTicket
##   <chr>                  <int>
## 1 A/5 21171                  1
## 2 PC 17599                   1
## 3 STON/O2. 3101282           1
## 4 113803                     2
## # ... with 887 more rows
```
…
```r
reftable %>%
  right_join(train, by ="Pclass") %>%
  select(Pclass,surPclass) %>%
  mutate(surPclass=surPclass+rnorm(nrow(train),sd=0.01)) %>%  # add noise
  print(n=4)
```

```
## # A tibble: 891 x 2
##   Pclass surPclass
##    <int>     <dbl>
## 1      3     0.230
## 2      1     0.619
## 3      3     0.224
## 4      1     0.617
## # ... with 887 more rows
```
…
