Exploratory Data Analysis on Titanic Surivival
…
2 Glance at data

2.1 Data structure

## # A tibble: 891 x 12
##    PassengerId Survived Pclass Name  Sex     Age SibSp Parch Ticket  Fare
##          <dbl>    <dbl>  <dbl> <chr> <chr> <dbl> <dbl> <dbl> <chr>  <dbl>
##  1           1        0      3 Brau~ male     22     1     0 A/5 2~  7.25
##  2           2        1      1 Cumi~ fema~    38     1     0 PC 17~ 71.3 
##  3           3        1      3 Heik~ fema~    26     0     0 STON/~  7.92
##  4           4        1      1 Futr~ fema~    35     1     0 113803 53.1 
##  5           5        0      3 Alle~ male     35     0     0 373450  8.05
##  6           6        0      3 Mora~ male     NA     0     0 330877  8.46
##  7           7        0      1 McCa~ male     54     0     0 17463  51.9 
##  8           8        0      3 Pals~ male      2     3     1 349909 21.1 
##  9           9        1      3 John~ fema~    27     0     2 347742 11.1 
## 10          10        1      2 Nass~ fema~    14     1     0 237736 30.1 
## # ... with 881 more rows, and 2 more variables: Cabin <chr>,
## #   Embarked <chr>
…
2.4 Create a variable SurvivedLabel as a factor of Survival

titanic

## # A tibble: 891 x 12
##    PassengerId Survived Pclass Name  Sex     Age SibSp Parch Ticket  Fare
##          <dbl>    <dbl>  <dbl> <chr> <chr> <dbl> <dbl> <dbl> <chr>  <dbl>
##  1           1        0      3 Brau~ male     22     1     0 A/5 2~  7.25
##  2           2        1      1 Cumi~ fema~    38     1     0 PC 17~ 71.3 
##  3           3        1      3 Heik~ fema~    26     0     0 STON/~  7.92
##  4           4        1      1 Futr~ fema~    35     1     0 113803 53.1 
##  5           5        0      3 Alle~ male     35     0     0 373450  8.05
##  6           6        0      3 Mora~ male     NA     0     0 330877  8.46
##  7           7        0      1 McCa~ male     54     0     0 17463  51.9 
##  8           8        0      3 Pals~ male      2     3     1 349909 21.1 
##  9           9        1      3 John~ fema~    27     0     2 347742 11.1 
## 10          10        1      2 Nass~ fema~    14     1     0 237736 30.1 
## # ... with 881 more rows, and 2 more variables: Cabin <chr>,
## #   Embarked <chr>
…
# create age_cut by cutting Age into c("children","adult","senior") 
summary(titanic$Age)

##    Min. 1st Qu.  Median    Mean 3rd Qu.    Max.    NA's 
##    0.42   20.12   28.00   29.70   38.00   80.00     177

titanic <- titanic %>%
  mutate(age_bin=cut(Age, breaks = c(0,18,60,80),
                     labels=c("children","adult","senior"),
                     include.lowest = TRUE)) %>%
  mutate(age_bin=addNA(age_bin)) 
titanic %>% select(Age,age_bin) %>% print(n=2)

## # A tibble: 891 x 2
##     Age age_bin
##   <dbl> <fct>  
## 1    22 adult  
## 2    38 adult  
## # ... with 889 more rows
…
# create fare_cut by cutting Fare into c("low","medium","high")
# using the first quantile and the third quantile
summary(titanic$Fare)

##    Min. 1st Qu.  Median    Mean 3rd Qu.    Max. 
##    0.00    7.91   14.45   32.20   31.00  512.33

titanic <- titanic %>%
  mutate(fare_bin=cut(Fare, breaks = c(0,8,31,550),
                     labels=c("low","medium","high"),
                     include.lowest = TRUE))
  
titanic %>% select(Fare,fare_bin) %>% print(n=5)

## # A tibble: 891 x 2
##    Fare fare_bin
##   <dbl> <fct>   
## 1  7.25 low     
## 2 71.3  high    
## 3  7.92 low     
## 4 53.1  high    
## 5  8.05 medium  
## # ... with 886 more rows
…
# Create a new variable: surPclass
# Step 1: Group by Pclass
# Step 2: summarise and mean to find the survival ratio for each Pclass
# Step 3: Join to the original data set
# Step 4: Add random noises rnorm(nrow(titanic),sd=0.01) to the 
titanic %>% 
  group_by(Pclass) %>%
  summarise(surPclass=mean(Survived)) %>%
  right_join(titanic, by ="Pclass") %>%
  select(Pclass,surPclass) %>%
  mutate(surPclass=surPclass+rnorm(nrow(titanic),sd=0.01))        # add noise

## # A tibble: 891 x 2
##    Pclass surPclass
##     <dbl>     <dbl>
##  1      3     0.237
##  2      1     0.628
##  3      3     0.248
##  4      1     0.629
##  5      3     0.240
##  6      3     0.244
##  7      1     0.647
##  8      3     0.256
##  9      3     0.244
## 10      2     0.467
## # ... with 881 more rows
…
Data are split into the training set and the testing set.

# Convert categories to factors for variables:  Pclass, Sex, Single, Embarked
# filter out missing values of Embarked
# select columns: SurvivedLabel, Pclass, Sex, age_bin, fare_bin, Embarked
# Assign to a new R object, titanic2
titanic2 <- titanic %>%
  mutate(Pclass=factor(Pclass), Sex=factor(Sex), 
         Single=factor(Single),Embarked=factor(Embarked)) %>%
  filter(!is.na(Embarked)) %>%
  select(SurvivedLabel, Pclass, Sex, Single,age_bin, fare_bin, Embarked)

titanic2

## # A tibble: 889 x 7
##    SurvivedLabel Pclass Sex    Single age_bin  fare_bin Embarked
##    <fct>         <fct>  <fct>  <fct>  <fct>    <fct>    <fct>   
##  1 0             3      male   FALSE  adult    low      S       
##  2 1             1      female FALSE  adult    high     C       
##  3 1             3      female TRUE   adult    low      S       
##  4 1             1      female FALSE  adult    high     S       
##  5 0             3      male   TRUE   adult    medium   S       
##  6 0             3      male   TRUE   <NA>     medium   Q       
##  7 0             1      male   TRUE   adult    high     S       
##  8 0             3      male   FALSE  children medium   S       
##  9 1             3      female FALSE  adult    medium   S       
## 10 1             2      female FALSE  children medium   C       
## # ... with 879 more rows
…
# Predict the survival rates for passengers in the testing set
pred_fit2 <- predict(fit2, newdata = test, 
                     type = "response", se.fit = TRUE)
# Format the predictions
format_pred <- tibble(predSurv=ifelse(pred_fit2$fit>0.5,1,0),
                      survRate=pred_fit2$fit,
                      se=pred_fit2$se.fit)
format_pred

## # A tibble: 389 x 3
##    predSurv survRate     se
##       <dbl>    <dbl>  <dbl>
##  1        1   0.928  0.0234
##  2        0   0.0912 0.0207
##  3        0   0.121  0.0469
##  4        1   0.890  0.0311
##  5        0   0.0912 0.0207
##  6        0   0.0912 0.0207
##  7        1   0.736  0.0646
##  8        1   0.759  0.0543
##  9        0   0.363  0.125 
## 10        1   0.516  0.107 
## # ... with 379 more rows
…
